Volleyball Aces - Ben Baruch's Sports Blog
…
As someone who has limited knowledge of volleyball, and servers, I wonder if Maryland is unique in having four players make this chart. Are they above, below or right around average?

good_servers %>% group_by(team) %>%
  summarise(
    total = n()
  ) %>% arrange(desc(total))

## # A tibble: 243 × 2
##    team                  total
##    <chr>                 <int>
##  1 Providence Friars         5
##  2 UNI Panthers              5
##  3 Ball St. Cardinals        4
##  4 Bowling Green Falcons     4
##  5 Delaware St. Hornets      4
##  6 Green Bay Phoenix         4
##  7 Hofstra Pride             4
##  8 Indiana Hoosiers          4
##  9 Iona Gaels                4
## 10 IUPUI Jaguars             4
## # … with 233 more rows
…
